{
  "indentSize": 4,
  "tabSize": 4,
  "indentStyle": 2,
  "newLineCharacter": "\n",
  "convertTabsToSpaces": true,
  "placeOpenBraceOnNewLineForFunctions": true,
  "placeOpenBraceOnNewLineForControlBlocks": true
}
